Computing NCA Parameters for Theophylline • PKNCA
…
The superposition-simulated scenario is not especially realistic as
it includes dense sampling on every day. With this scenario, the
intervals automatically selected have an interval for every subject on
every day.

data_obj <- PKNCAdata(conc_obj_multi, dose_obj_multi)
data_obj$intervals[,c("Subject", "start", "end")]

## # A tibble: 84 × 3
##    Subject start   end
##    <ord>   <dbl> <dbl>
##  1 1           0    24
##  2 1          24    48
##  3 1          48    72
##  4 1          72    96
##  5 1          96   120
##  6 1         120   144
##  7 1         144   168
##  8 2           0    24
##  9 2          24    48
## 10 2          48    72
## # ℹ 74 more rows
…
After the data is ready, the calculations and summary can
progress.

results_obj <- pk.nca(data_obj)
print(results_obj)

## $result
## # A tibble: 48 × 6
##    Subject start   end PPTESTCD PPORRES exclude
##    <ord>   <dbl> <dbl> <chr>      <dbl> <chr>  
##  1 6           0    24 auclast    71.8  NA     
##  2 6           0    24 cmax        6.44 NA     
##  3 6         144   168 auclast    82.2  NA     
##  4 6         144   168 cmax        7.37 NA     
##  5 7           0    24 auclast    89.0  NA     
##  6 7           0    24 cmax        7.09 NA     
##  7 7         144   168 auclast   101.   NA     
##  8 7         144   168 cmax        8.07 NA     
##  9 8           0    24 auclast    86.7  NA     
## 10 8           0    24 cmax        7.56 NA     
## # ℹ 38 more rows
## 
## $data
## Formula for concentration:
##  conc ~ time | Subject
## Data are dense PK.
## With 12 subjects defined in the 'Subject' column.
## Nominal time column is not specified.
## 
…
